Verilog/pixelArray_tb.vcd
$date
	Thu Nov 18 10:09:03 2021
$end
$version
	Icarus Verilog
$end
$timescale
	1ps
$end
$scope module pixelArray_tb $end
$var wire 1 ! anaReset $end
$var wire 16 " pixData [15:0] $end
$var wire 1 # anaRamp $end
$var wire 1 $ anaBias1 $end
$var reg 1 % clk $end
$var reg 1 & convert $end
$var reg 8 ' data [7:0] $end
$var reg 1 ( erase $end
$var reg 1 ) expose $end
$var reg 3 * next_state [2:0] $end
$var reg 16 + pixelDataOut [15:0] $end
$var reg 4 , read [3:0] $end
$var reg 1 - reset $end
$var reg 3 . state [2:0] $end
$var integer 32 / counter [31:0] $end
$scope module ps1 $end
$var wire 16 0 DATA [15:0] $end
$var wire 1 ( ERASE $end
$var wire 1 ) EXPOSE $end
$var wire 1 # RAMP $end
$var wire 4 1 READ [3:0] $end
$var wire 1 ! RESET $end
$var wire 1 $ VBN1 $end
$scope begin genblk1[0] $end
$scope begin genblk2[0] $end
$scope module ps1 $end
$var wire 8 2 DATA [7:0] $end
$var wire 1 ( ERASE $end
$var wire 1 ) EXPOSE $end
$var wire 1 # RAMP $end
$var wire 1 3 READ $end
$var wire 1 ! RESET $end
$var wire 1 $ VBN1 $end
$var reg 1 4 cmp $end
$var reg 8 5 p_data [7:0] $end
$var real 1 6 adc $end
$var real 1 7 lsb $end
$var real 1 8 tmp $end
$var real 1 9 v_erase $end
$upscope $end
$upscope $end
$scope begin genblk2[1] $end
$scope module ps1 $end
$var wire 8 : DATA [7:0] $end
$var wire 1 ( ERASE $end
$var wire 1 ) EXPOSE $end
$var wire 1 # RAMP $end
$var wire 1 ; READ $end
$var wire 1 ! RESET $end
$var wire 1 $ VBN1 $end
$var reg 1 < cmp $end
$var reg 8 = p_data [7:0] $end
$var real 1 > adc $end
$var real 1 ? lsb $end
$var real 1 @ tmp $end
$var real 1 A v_erase $end
$upscope $end
$upscope $end
$upscope $end
$scope begin genblk1[1] $end
$scope begin genblk2[0] $end
$scope module ps1 $end
$var wire 8 B DATA [7:0] $end
$var wire 1 ( ERASE $end
$var wire 1 ) EXPOSE $end
$var wire 1 # RAMP $end
$var wire 1 C READ $end
$var wire 1 ! RESET $end
$var wire 1 $ VBN1 $end
$var reg 1 D cmp $end
$var reg 8 E p_data [7:0] $end
$var real 1 F adc $end
$var real 1 G lsb $end
$var real 1 H tmp $end
$var real 1 I v_erase $end
$upscope $end
$upscope $end
$scope begin genblk2[1] $end
$scope module ps1 $end
$var wire 8 J DATA [7:0] $end
$var wire 1 ( ERASE $end
$var wire 1 ) EXPOSE $end
$var wire 1 # RAMP $end
$var wire 1 K READ $end
$var wire 1 ! RESET $end
$var wire 1 $ VBN1 $end
$var reg 1 L cmp $end
$var reg 8 M p_data [7:0] $end
$var real 1 N adc $end
$var real 1 O lsb $end
$var real 1 P tmp $end
$var real 1 Q v_erase $end
$upscope $end
$upscope $end
$upscope $end
$upscope $end
$upscope $end
$enddefinitions $end
#500000
$dumpvars
r1.2 Q
r0 P
r0.004705882352941176 O
r0 N
bx M
xL
xK
bx J
r1.2 I
r0 H
r0.004705882352941176 G
r0 F
bx E
xD
xC
bx B
r1.2 A
r0 @
r0.004705882352941176 ?
r0 >
bx =
x<
x;
bx :
r1.2 9
r0 8
r0.004705882352941176 7
r0 6
bx 5
x4
x3
bx 2
bx 1
bx 0
b0 /
b0 .
0-
bx ,
b0 +
b0 *
x)
x(
b0 '
0&
1%
x$
0#
bx "
1!
$end
#1000000
b0 2
b0 :
b0 B
b0 J
b0 "
b0 0
03
0;
0C
0K
0L
b0 M
r1.2 P
0D
b0 E
r1.2 H
0<
b0 =
r1.2 @
04
b0 5
r1.2 8
0)
b0 ,
b0 1
1(
0$
0%
#1500000
b1 /
1%
#2000000
0%
#2500000
b10 /
1%
#3000000
0%
#3500000
b11 /
1%
#4000000
0%
#4500000
b100 /
1%
#5000000
0%
#5500000
b101 /
1%
#6000000
0%
#6500000
b101 .
b1 *
b110 /
1%
#7000000
0(
0%
#7500000
b1 .
b0 /
1%
#8000000
1)
0%
#8500000
r1.197647058823529 P
r1.197647058823529 H
r1.197647058823529 @
b1 /
1$
1%
#9000000
0$
0%
#9500000
r1.195294117647059 @
r1.195294117647059 H
r1.195294117647059 P
b10 /
1$
1%
#10000000
0$
0%
#10500000
r1.192941176470588 P
r1.192941176470588 @
r1.197647058823529 8
b11 /
1$
1%
#11000000
0$
0%
#11500000
r1.190588235294117 @
r1.190588235294117 P
b100 /
1$
1%
#12000000
0$
0%
#12500000
r1.188235294117647 P
r1.192941176470588 H
r1.195294117647059 8
b101 /
1$
1%
#13000000
0$
0%
#13500000
r1.190588235294117 H
b110 /
1$
1%
#14000000
0$
0%
#14500000
r1.185882352941176 P
r1.188235294117647 @
b111 /
1$
1%
#15000000
0$
0%
#15500000
r1.185882352941176 @
r1.188235294117647 H
r1.183529411764705 P
b1000 /
1$
1%
#16000000
0$
0%
#16500000
r1.181176470588235 P
b1001 /
1$
1%
#17000000
0$
0%
#17500000
r1.192941176470588 8
r1.183529411764705 @
r1.185882352941176 H
b1010 /
1$
1%
#18000000
0$
0%
#18500000
r1.181176470588235 @
r1.190588235294117 8
b1011 /
1$
1%
#19000000
0$
0%
#19500000
r1.178823529411764 @
r1.183529411764705 H
r1.178823529411764 P
b1100 /
1$
1%
#20000000
0$
0%
#20500000
b1101 /
1$
1%
#21000000
0$
0%
#21500000
r1.188235294117647 8
r1.176470588235293 P
b1110 /
1$
1%
#22000000
0$
0%
#22500000
r1.185882352941176 8
b1111 /
1$
1%
#23000000
0$
0%
#23500000
r1.183529411764705 8
r1.176470588235293 @
b10000 /
1$
1%
#24000000
0$
0%
#24500000
r1.181176470588235 H
r1.174117647058823 @
r1.181176470588235 8
b10001 /
1$
1%
#25000000
0$
0%
#25500000
r1.178823529411764 8
r1.171764705882352 @
r1.178823529411764 H
b10010 /
1$
1%
#26000000
0$
0%
#26500000
r1.174117647058823 P
r1.176470588235293 H
b10011 /
1$
1%
#27000000
0$
0%
#27500000
r1.169411764705881 @
r1.174117647058823 H
b10100 /
1$
1%
#28000000
0$
0%
#28500000
r1.171764705882352 H
r1.167058823529411 @
r1.176470588235293 8
b10101 /
1$
1%
#29000000
0$
0%
#29500000
r1.169411764705881 H
r1.171764705882352 P
b10110 /
1$
1%
#30000000
0$
0%
#30500000
r1.169411764705881 P
r1.167058823529411 H
b10111 /
1$
1%
#31000000
0$
0%
#31500000
r1.174117647058823 8
r1.16470588235294 @
b11000 /
1$
1%
#32000000
0$
0%
#32500000
r1.16470588235294 H
r1.162352941176469 @
r1.171764705882352 8
b11001 /
1$
1%
#33000000
0$
0%
#33500000
r1.159999999999999 @
r1.162352941176469 H
r1.167058823529411 P
b11010 /
1$
1%
#34000000
0$
0%
#34500000
b11011 /
1$
1%
#35000000
0$
0%
#35500000
r1.169411764705881 8
r1.157647058823528 @
b11100 /
1$
1%
#36000000
0$
0%
#36500000
r1.159999999999999 H
r1.155294117647057 @
r1.167058823529411 8
b11101 /
1$
1%
#37000000
0$
0%
#37500000
r1.157647058823528 H
r1.16470588235294 P
b11110 /
1$
1%
#38000000
0$
0%
#38500000
r1.162352941176469 P
r1.152941176470587 @
r1.16470588235294 8
b11111 /
1$
1%
#39000000
0$
0%
#39500000
r1.150588235294116 @
r1.155294117647057 H
r1.159999999999999 P
b100000 /
1$
1%
#40000000
0$
0%
#40500000
r1.152941176470587 H
b100001 /
1$
1%
#41000000
0$
0%
#41500000
r1.162352941176469 8
r1.148235294117645 @
b100010 /
1$
1%
#42000000
0$
0%
#42500000
r1.150588235294116 H
b100011 /
1$
1%
#43000000
0$
0%
#43500000
r1.145882352941175 @
b100100 /
1$
1%
#44000000
0$
0%
#44500000
r1.157647058823528 P
r1.143529411764704 @
b100101 /
1$
1%
#45000000
0$
0%
#45500000
r1.159999999999999 8
r1.141176470588233 @
r1.148235294117645 H
r1.155294117647057 P
b100110 /
1$
1%
#46000000
0$
0%
#46500000
r1.152941176470587 P
b100111 /
1$
1%
#47000000
0$
0%
#47500000
r1.157647058823528 8
r1.138823529411763 @
b101000 /
1$
1%
#48000000
0$
0%
#48500000
r1.150588235294116 P
b101001 /
1$
1%
#49000000
0$
0%
#49500000
r1.148235294117645 P
b101010 /
1$
1%
#50000000
0$
0%
#50500000
r1.136470588235292 @
r1.155294117647057 8
b101011 /
1$
1%
#51000000
0$
0%
#51500000
r1.145882352941175 H
b101100 /
1$
1%
#52000000
0$
0%
#52500000
r1.152941176470587 8
b101101 /
1$
1%
#53000000
0$
0%
#53500000
r1.150588235294116 8
r1.134117647058821 @
r1.145882352941175 P
b101110 /
1$
1%
#54000000
0$
0%
#54500000
b101111 /
1$
1%
#55000000
0$
0%
#55500000
r1.143529411764704 P
b110000 /
1$
1%
#56000000
0$
0%
#56500000
r1.141176470588233 P
r1.143529411764704 H
r1.131764705882351 @
b110001 /
1$
1%
#57000000
0$
0%
#57500000
r1.148235294117645 8
r1.12941176470588 @
r1.141176470588233 H
b110010 /
1$
1%
#58000000
0$
0%
#58500000
r1.138823529411763 P
r1.138823529411763 H
b110011 /
1$
1%
#59000000
0$
0%
#59500000
r1.127058823529409 @
r1.136470588235292 H
r1.136470588235292 P
b110100 /
1$
1%
#60000000
0$
0%
#60500000
r1.124705882352939 @
r1.145882352941175 8
b110101 /
1$
1%
#61000000
0$
0%
#61500000
r1.143529411764704 8
r1.122352941176468 @
b110110 /
1$
1%
#62000000
0$
0%
#62500000
r1.134117647058821 H
b110111 /
1$
1%
#63000000
0$
0%
#63500000
r1.131764705882351 H
b111000 /
1$
1%
#64000000
0$
0%
#64500000
r1.134117647058821 P
r1.141176470588233 8
b111001 /
1$
1%
#65000000
0$
0%
#65500000
r1.12941176470588 H
r1.131764705882351 P
b111010 /
1$
1%
#66000000
0$
0%
#66500000
r1.119999999999997 @
b111011 /
1$
1%
#67000000
0$
0%
#67500000
r1.12941176470588 P
b111100 /
1$
1%
#68000000
0$
0%
#68500000
r1.117647058823527 @
b111101 /
1$
1%
#69000000
0$
0%
#69500000
r1.115294117647056 @
r1.127058823529409 H
b111110 /
1$
1%
#70000000
0$
0%
#70500000
r1.127058823529409 P
r1.124705882352939 H
r1.112941176470585 @
r1.138823529411763 8
b111111 /
1$
1%
#71000000
0$
0%
#71500000
r1.136470588235292 8
r1.110588235294115 @
r1.122352941176468 H
b1000000 /
1$
1%
#72000000
0$
0%
#72500000
r1.119999999999997 H
b1000001 /
1$
1%
#73000000
0$
0%
#73500000
r1.108235294117644 @
r1.117647058823527 H
b1000010 /
1$
1%
#74000000
0$
0%
#74500000
r1.105882352941173 @
b1000011 /
1$
1%
#75000000
0$
0%
#75500000
r1.134117647058821 8
r1.103529411764703 @
r1.124705882352939 P
b1000100 /
1$
1%
#76000000
0$
0%
#76500000
r1.122352941176468 P
r1.101176470588232 @
b1000101 /
1$
1%
#77000000
0$
0%
#77500000
r1.098823529411761 @
b1000110 /
1$
1%
#78000000
0$
0%
#78500000
r1.119999999999997 P
r1.115294117647056 H
b1000111 /
1$
1%
#79000000
0$
0%
#79500000
r1.096470588235291 @
r1.112941176470585 H
r1.117647058823527 P
b1001000 /
1$
1%
#80000000
0$
0%
#80500000
r1.110588235294115 H
r1.09411764705882 @
r1.131764705882351 8
b1001001 /
1$
1%
#81000000
0$
0%
#81500000
b1001010 /
1$
1%
#82000000
0$
0%
#82500000
r1.115294117647056 P
r1.108235294117644 H
r1.091764705882349 @
b1001011 /
1$
1%
#83000000
0$
0%
#83500000
r1.12941176470588 8
r1.089411764705879 @
r1.105882352941173 H
r1.112941176470585 P
b1001100 /
1$
1%
#84000000
0$
0%
#84500000
r1.110588235294115 P
r1.103529411764703 H
r1.087058823529408 @
b1001101 /
1$
1%
#85000000
0$
0%
#85500000
r1.127058823529409 8
r1.084705882352937 @
r1.101176470588232 H
r1.108235294117644 P
b1001110 /
1$
1%
#86000000
0$
0%
#86500000
r1.105882352941173 P
r1.124705882352939 8
b1001111 /
1$
1%
#87000000
0$
0%
#87500000
r1.103529411764703 P
b1010000 /
1$
1%
#88000000
0$
0%
#88500000
r1.082352941176467 @
b1010001 /
1$
1%
#89000000
0$
0%
#89500000
b1010010 /
1$
1%
#90000000
0$
0%
#90500000
r1.101176470588232 P
r1.122352941176468 8
b1010011 /
1$
1%
#91000000
0$
0%
#91500000
b1010100 /
1$
1%
#92000000
0$
0%
#92500000
r1.098823529411761 P
r1.098823529411761 H
r1.079999999999996 @
r1.119999999999997 8
b1010101 /
1$
1%
#93000000
0$
0%
#93500000
r1.117647058823527 8
r1.077647058823525 @
r1.096470588235291 P
b1010110 /
1$
1%
#94000000
0$
0%
#94500000
r1.096470588235291 H
r1.115294117647056 8
b1010111 /
1$
1%
#95000000
0$
0%
#95500000
r1.075294117647055 @
r1.09411764705882 H
b1011000 /
1$
1%
#96000000
0$
0%
#96500000
r1.09411764705882 P
r1.112941176470585 8
b1011001 /
1$
1%
#97000000
0$
0%
#97500000
b1011010 /
1$
1%
#98000000
0$
0%
#98500000
r1.091764705882349 P
r1.091764705882349 H
r1.072941176470584 @
r1.110588235294115 8
b1011011 /
1$
1%
#99000000
0$
0%
#99500000
r1.108235294117644 8
r1.070588235294113 @
r1.089411764705879 H
b1011100 /
1$
1%
#100000000
0$
0%
#100500000
r1.089411764705879 P
r1.087058823529408 H
r1.068235294117643 @
r1.105882352941173 8
b1011101 /
1$
1%
#101000000
0$
0%
#101500000
r1.103529411764703 8
r1.084705882352937 H
b1011110 /
1$
1%
#102000000
0$
0%
#102500000
r1.082352941176467 H
b1011111 /
1$
1%
#103000000
0$
0%
#103500000
b1100000 /
1$
1%
#104000000
0$
0%
#104500000
r1.101176470588232 8
b1100001 /
1$
1%
#105000000
0$
0%
#105500000
r1.098823529411761 8
b1100010 /
1$
1%
#106000000
0$
0%
#106500000
r1.065882352941172 @
b1100011 /
1$
1%
#107000000
0$
0%
#107500000
r1.096470588235291 8
r1.063529411764701 @
r1.087058823529408 P
b1100100 /
1$
1%
#108000000
0$
0%
#108500000
r1.084705882352937 P
r1.061176470588231 @
b1100101 /
1$
1%
#109000000
0$
0%
#109500000
b1100110 /
1$
1%
#110000000
0$
0%
#110500000
r1.079999999999996 H
r1.09411764705882 8
b1100111 /
1$
1%
#111000000
0$
0%
#111500000
r1.091764705882349 8
r1.077647058823525 H
r1.082352941176467 P
b1101000 /
1$
1%
#112000000
0$
0%
#112500000
r1.079999999999996 P
r1.075294117647055 H
r1.05882352941176 @
b1101001 /
1$
1%
#113000000
0$
0%
#113500000
r1.056470588235289 @
r1.072941176470584 H
b1101010 /
1$
1%
#114000000
0$
0%
#114500000
r1.070588235294113 H
r1.054117647058818 @
b1101011 /
1$
1%
#115000000
0$
0%
#115500000
r1.051764705882348 @
r1.068235294117643 H
b1101100 /
1$
1%
#116000000
0$
0%
#116500000
r1.049411764705877 @
b1101101 /
1$
1%
#117000000
0$
0%
#117500000
r1.065882352941172 H
r1.077647058823525 P
b1101110 /
1$
1%
#118000000
0$
0%
#118500000
r1.075294117647055 P
r1.089411764705879 8
b1101111 /
1$
1%
#119000000
0$
0%
#119500000
r1.047058823529406 @
r1.072941176470584 P
b1110000 /
1$
1%
#120000000
0$
0%
#120500000
r1.070588235294113 P
r1.044705882352936 @
r1.087058823529408 8
b1110001 /
1$
1%
#121000000
0$
0%
#121500000
r1.084705882352937 8
r1.063529411764701 H
r1.068235294117643 P
b1110010 /
1$
1%
#122000000
0$
0%
#122500000
r1.042352941176465 @
r1.082352941176467 8
b1110011 /
1$
1%
#123000000
0$
0%
#123500000
r1.079999999999996 8
r1.065882352941172 P
b1110100 /
1$
1%
#124000000
0$
0%
#124500000
r1.063529411764701 P
r1.061176470588231 H
b1110101 /
1$
1%
#125000000
0$
0%
#125500000
r1.077647058823525 8
r1.05882352941176 H
b1110110 /
1$
1%
#126000000
0$
0%
#126500000
r1.056470588235289 H
r1.039999999999994 @
r1.075294117647055 8
b1110111 /
1$
1%
#127000000
0$
0%
#127500000
r1.072941176470584 8
r1.054117647058818 H
b1111000 /
1$
1%
#128000000
0$
0%
#128500000
r1.051764705882348 H
r1.037647058823524 @
b1111001 /
1$
1%
#129000000
0$
0%
#129500000
r1.070588235294113 8
r1.035294117647053 @
r1.049411764705877 H
b1111010 /
1$
1%
#130000000
0$
0%
#130500000
r1.047058823529406 H
b1111011 /
1$
1%
#131000000
0$
0%
#131500000
r1.068235294117643 8
r1.032941176470582 @
r1.044705882352936 H
b1111100 /
1$
1%
#132000000
0$
0%
#132500000
r1.042352941176465 H
r1.030588235294112 @
b1111101 /
1$
1%
#133000000
0$
0%
#133500000
r1.065882352941172 8
r1.028235294117641 @
b1111110 /
1$
1%
#134000000
0$
0%
#134500000
r1.063529411764701 8
b1111111 /
1$
1%
#135000000
0$
0%
#135500000
r1.061176470588231 8
r1.02588235294117 @
r1.039999999999994 H
r1.061176470588231 P
b10000000 /
1$
1%
#136000000
0$
0%
#136500000
r1.05882352941176 P
r1.037647058823524 H
r1.0235294117647 @
b10000001 /
1$
1%
#137000000
0$
0%
#137500000
r1.05882352941176 8
r1.021176470588229 @
r1.035294117647053 H
r1.056470588235289 P
b10000010 /
1$
1%
#138000000
0$
0%
#138500000
r1.018823529411758 @
b10000011 /
1$
1%
#139000000
0$
0%
#139500000
r1.056470588235289 8
r1.016470588235288 @
r1.032941176470582 H
b10000100 /
1$
1%
#140000000
0$
0%
#140500000
r1.054117647058818 P
r1.030588235294112 H
r1.014117647058817 @
r1.054117647058818 8
b10000101 /
1$
1%
#141000000
0$
0%
#141500000
r1.028235294117641 H
r1.051764705882348 P
b10000110 /
1$
1%
#142000000
0$
0%
#142500000
r1.011764705882346 @
b10000111 /
1$
1%
#143000000
0$
0%
#143500000
r1.009411764705876 @
r1.02588235294117 H
b10001000 /
1$
1%
#144000000
0$
0%
#144500000
r1.049411764705877 P
r1.0235294117647 H
b10001001 /
1$
1%
#145000000
0$
0%
#145500000
r1.051764705882348 8
r1.021176470588229 H
b10001010 /
1$
1%
#146000000
0$
0%
#146500000
r1.047058823529406 P
b10001011 /
1$
1%
#147000000
0$
0%
#147500000
r1.049411764705877 8
r1.018823529411758 H
r1.044705882352936 P
b10001100 /
1$
1%
#148000000
0$
0%
#148500000
r1.042352941176465 P
r1.007058823529405 @
b10001101 /
1$
1%
#149000000
0$
0%
#149500000
r1.039999999999994 P
b10001110 /
1$
1%
#150000000
0$
0%
#150500000
r1.016470588235288 H
r1.004705882352934 @
b10001111 /
1$
1%
#151000000
0$
0%
#151500000
r1.047058823529406 8
r1.014117647058817 H
b10010000 /
1$
1%
#152000000
0$
0%
#152500000
r1.011764705882346 H
r1.002352941176464 @
b10010001 /
1$
1%
#153000000
0$
0%
#153500000
r1.009411764705876 H
r1.037647058823524 P
b10010010 /
1$
1%
#154000000
0$
0%
#154500000
r1.035294117647053 P
r1.007058823529405 H
b10010011 /
1$
1%
#155000000
0$
0%
#155500000
r0.9999999999999932 @
r1.004705882352934 H
r1.032941176470582 P
b10010100 /
1$
1%
#156000000
0$
0%
#156500000
b10010101 /
1$
1%
#157000000
0$
0%
#157500000
r1.044705882352936 8
r0.9976470588235227 @
b10010110 /
1$
1%
#158000000
0$
0%
#158500000
r1.030588235294112 P
r1.002352941176464 H
r0.9952941176470521 @
r1.042352941176465 8
b10010111 /
1$
1%
#159000000
0$
0%
#159500000
r1.028235294117641 P
b10011000 /
1$
1%
#160000000
0$
0%
#160500000
r1.02588235294117 P
b10011001 /
1$
1%
#161000000
0$
0%
#161500000
r0.9929411764705816 @
r1.0235294117647 P
b10011010 /
1$
1%
#162000000
0$
0%
#162500000
r0.9999999999999932 H
r0.990588235294111 @
r1.039999999999994 8
b10011011 /
1$
1%
#163000000
0$
0%
#163500000
r1.037647058823524 8
r0.9882352941176404 @
b10011100 /
1$
1%
#164000000
0$
0%
#164500000
r0.9858823529411699 @
b10011101 /
1$
1%
#165000000
0$
0%
#165500000
b10011110 /
1$
1%
#166000000
0$
0%
#166500000
r1.021176470588229 P
r1.035294117647053 8
b10011111 /
1$
1%
#167000000
0$
0%
#167500000
r1.032941176470582 8
r0.9835294117646993 @
b10100000 /
1$
1%
#168000000
0$
0%
#168500000
r1.018823529411758 P
r1.030588235294112 8
b10100001 /
1$
1%
#169000000
0$
0%
#169500000
r0.9811764705882288 @
r0.9976470588235227 H
r1.016470588235288 P
b10100010 /
1$
1%
#170000000
0$
0%
#170500000
r1.014117647058817 P
r0.9952941176470521 H
r0.9788235294117582 @
r1.028235294117641 8
b10100011 /
1$
1%
#171000000
0$
0%
#171500000
r0.9929411764705816 H
b10100100 /
1$
1%
#172000000
0$
0%
#172500000
r1.011764705882346 P
r1.02588235294117 8
b10100101 /
1$
1%
#173000000
0$
0%
#173500000
b10100110 /
1$
1%
#174000000
0$
0%
#174500000
r1.009411764705876 P
r0.990588235294111 H
b10100111 /
1$
1%
#175000000
0$
0%
#175500000
r1.0235294117647 8
r0.9764705882352877 @
b10101000 /
1$
1%
#176000000
0$
0%
#176500000
r1.007058823529405 P
r0.9882352941176404 H
r0.9741176470588171 @
r1.021176470588229 8
b10101001 /
1$
1%
#177000000
0$
0%
#177500000
r0.9717647058823465 @
r1.004705882352934 P
b10101010 /
1$
1%
#178000000
0$
0%
#178500000
r1.002352941176464 P
r0.9858823529411699 H
b10101011 /
1$
1%
#179000000
0$
0%
#179500000
r1.018823529411758 8
r0.969411764705876 @
r0.9835294117646993 H
b10101100 /
1$
1%
#180000000
0$
0%
#180500000
b10101101 /
1$
1%
#181000000
0$
0%
#181500000
r0.9670588235294054 @
r0.9811764705882288 H
r0.9999999999999932 P
b10101110 /
1$
1%
#182000000
0$
0%
#182500000
r1.016470588235288 8
b10101111 /
1$
1%
#183000000
0$
0%
#183500000
b10110000 /
1$
1%
#184000000
0$
0%
#184500000
r0.9976470588235227 P
r1.014117647058817 8
b10110001 /
1$
1%
#185000000
0$
0%
#185500000
r1.011764705882346 8
r0.9647058823529349 @
r0.9788235294117582 H
r0.9952941176470521 P
b10110010 /
1$
1%
#186000000
0$
0%
#186500000
b10110011 /
1$
1%
#187000000
0$
0%
#187500000
r0.9764705882352877 H
r0.9929411764705816 P
b10110100 /
1$
1%
#188000000
0$
0%
#188500000
r0.990588235294111 P
r0.9741176470588171 H
r0.9623529411764643 @
r1.009411764705876 8
b10110101 /
1$
1%
#189000000
0$
0%
#189500000
r0.9882352941176404 P
b10110110 /
1$
1%
#190000000
0$
0%
#190500000
r0.9717647058823465 H
r1.007058823529405 8
b10110111 /
1$
1%
#191000000
0$
0%
#191500000
b10111000 /
1$
1%
#192000000
0$
0%
#192500000
r0.9858823529411699 P
r0.969411764705876 H
r1.004705882352934 8
b10111001 /
1$
1%
#193000000
0$
0%
#193500000
r0.9599999999999937 @
r0.9670588235294054 H
b10111010 /
1$
1%
#194000000
0$
0%
#194500000
r0.9835294117646993 P
r0.9647058823529349 H
r1.002352941176464 8
b10111011 /
1$
1%
#195000000
0$
0%
#195500000
r0.9999999999999932 8
r0.9576470588235232 @
b10111100 /
1$
1%
#196000000
0$
0%
#196500000
b10111101 /
1$
1%
#197000000
0$
0%
#197500000
r0.9552941176470526 @
r0.9623529411764643 H
r0.9811764705882288 P
b10111110 /
1$
1%
#198000000
0$
0%
#198500000
r0.9788235294117582 P
r0.9599999999999937 H
r0.9529411764705821 @
b10111111 /
1$
1%
#199000000
0$
0%
#199500000
r0.9976470588235227 8
r0.9764705882352877 P
b11000000 /
1$
1%
#200000000
0$
0%
#200500000
r0.9741176470588171 P
r0.9952941176470521 8
b11000001 /
1$
1%
#201000000
0$
0%
#201500000
r0.9929411764705816 8
r0.9576470588235232 H
b11000010 /
1$
1%
#202000000
0$
0%
#202500000
r0.990588235294111 8
b11000011 /
1$
1%
#203000000
0$
0%
#203500000
r0.9505882352941115 @
b11000100 /
1$
1%
#204000000
0$
0%
#204500000
r0.9882352941176404 8
b11000101 /
1$
1%
#205000000
0$
0%
#205500000
r0.9858823529411699 8
r0.9717647058823465 P
b11000110 /
1$
1%
#206000000
0$
0%
#206500000
r0.969411764705876 P
r0.9552941176470526 H
r0.948235294117641 @
b11000111 /
1$
1%
#207000000
0$
0%
#207500000
r0.9835294117646993 8
r0.9529411764705821 H
r0.9670588235294054 P
b11001000 /
1$
1%
#208000000
0$
0%
#208500000
r0.9647058823529349 P
r0.9811764705882288 8
b11001001 /
1$
1%
#209000000
0$
0%
#209500000
r0.9788235294117582 8
r0.9458823529411704 @
r0.9505882352941115 H
b11001010 /
1$
1%
#210000000
0$
0%
#210500000
r0.9623529411764643 P
r0.9435294117646998 @
r0.9764705882352877 8
b11001011 /
1$
1%
#211000000
0$
0%
#211500000
r0.9741176470588171 8
r0.948235294117641 H
b11001100 /
1$
1%
#212000000
0$
0%
#212500000
r0.9717647058823465 8
b11001101 /
1$
1%
#213000000
0$
0%
#213500000
r0.9411764705882293 @
r0.9458823529411704 H
b11001110 /
1$
1%
#214000000
0$
0%
#214500000
r0.9599999999999937 P
r0.9435294117646998 H
r0.9388235294117587 @
b11001111 /
1$
1%
#215000000
0$
0%
#215500000
r0.9411764705882293 H
r0.9576470588235232 P
b11010000 /
1$
1%
#216000000
0$
0%
#216500000
r0.9388235294117587 H
b11010001 /
1$
1%
#217000000
0$
0%
#217500000
r0.969411764705876 8
r0.9364705882352882 H
b11010010 /
1$
1%
#218000000
0$
0%
#218500000
r0.9341176470588176 H
b11010011 /
1$
1%
#219000000
0$
0%
#219500000
r0.9670588235294054 8
b11010100 /
1$
1%
#220000000
0$
0%
#220500000
r0.9317647058823471 H
r0.9364705882352882 @
b11010101 /
1$
1%
#221000000
0$
0%
#221500000
r0.9647058823529349 8
r0.9294117647058765 H
b11010110 /
1$
1%
#222000000
0$
0%
#222500000
r0.9270588235294059 H
r0.9341176470588176 @
r0.9623529411764643 8
b11010111 /
1$
1%
#223000000
0$
0%
#223500000
r0.9599999999999937 8
r0.9552941176470526 P
b11011000 /
1$
1%
#224000000
0$
0%
#224500000
r0.9529411764705821 P
r0.9317647058823471 @
r0.9576470588235232 8
b11011001 /
1$
1%
#225000000
0$
0%
#225500000
r0.9552941176470526 8
r0.9294117647058765 @
r0.9247058823529354 H
r0.9505882352941115 P
b11011010 /
1$
1%
#226000000
0$
0%
#226500000
r0.9223529411764648 H
r0.9529411764705821 8
b11011011 /
1$
1%
#227000000
0$
0%
#227500000
r0.9270588235294059 @
b11011100 /
1$
1%
#228000000
0$
0%
#228500000
r0.9199999999999943 H
r0.9505882352941115 8
b11011101 /
1$
1%
#229000000
0$
0%
#229500000
r0.948235294117641 8
b11011110 /
1$
1%
#230000000
0$
0%
#230500000
r0.9176470588235237 H
b11011111 /
1$
1%
#231000000
0$
0%
#231500000
r0.9458823529411704 8
r0.948235294117641 P
b11100000 /
1$
1%
#232000000
0$
0%
#232500000
r0.9458823529411704 P
r0.9435294117646998 8
b11100001 /
1$
1%
#233000000
0$
0%
#233500000
r0.9411764705882293 8
r0.9247058823529354 @
r0.9435294117646998 P
b11100010 /
1$
1%
#234000000
0$
0%
#234500000
r0.9411764705882293 P
r0.9223529411764648 @
r0.9388235294117587 8
b11100011 /
1$
1%
#235000000
0$
0%
#235500000
r0.9364705882352882 8
r0.9199999999999943 @
b11100100 /
1$
1%
#236000000
0$
0%
#236500000
r0.9152941176470532 H
r0.9176470588235237 @
b11100101 /
1$
1%
#237000000
0$
0%
#237500000
r0.9152941176470532 @
r0.9129411764705826 H
r0.9388235294117587 P
b11100110 /
1$
1%
#238000000
0$
0%
#238500000
r0.910588235294112 H
r0.9341176470588176 8
b11100111 /
1$
1%
#239000000
0$
0%
#239500000
b11101000 /
1$
1%
#240000000
0$
0%
#240500000
b11101001 /
1$
1%
#241000000
0$
0%
#241500000
r0.9129411764705826 @
r0.9082352941176415 H
r0.9364705882352882 P
b11101010 /
1$
1%
#242000000
0$
0%
#242500000
r0.9341176470588176 P
r0.9058823529411709 H
b11101011 /
1$
1%
#243000000
0$
0%
#243500000
r0.9317647058823471 8
r0.910588235294112 @
r0.9035294117647004 H
b11101100 /
1$
1%
#244000000
0$
0%
#244500000
r0.9317647058823471 P
r0.9011764705882298 H
b11101101 /
1$
1%
#245000000
0$
0%
#245500000
b11101110 /
1$
1%
#246000000
0$
0%
#246500000
r0.9294117647058765 P
r0.8988235294117592 H
r0.9294117647058765 8
b11101111 /
1$
1%
#247000000
0$
0%
#247500000
r0.9270588235294059 8
r0.8964705882352887 H
b11110000 /
1$
1%
#248000000
0$
0%
#248500000
r0.9270588235294059 P
r0.8941176470588181 H
r0.9247058823529354 8
b11110001 /
1$
1%
#249000000
0$
0%
#249500000
r0.9223529411764648 8
r0.8917647058823476 H
r0.9247058823529354 P
b11110010 /
1$
1%
#250000000
0$
0%
#250500000
r0.9082352941176415 @
b11110011 /
1$
1%
#251000000
0$
0%
#251500000
r0.9058823529411709 @
b11110100 /
1$
1%
#252000000
0$
0%
#252500000
r0.9223529411764648 P
r0.9199999999999943 8
b11110101 /
1$
1%
#253000000
0$
0%
#253500000
r0.9035294117647004 @
r0.889411764705877 H
r0.9199999999999943 P
b11110110 /
1$
1%
#254000000
0$
0%
#254500000
r0.8870588235294065 H
r0.9011764705882298 @
r0.9176470588235237 8
b11110111 /
1$
1%
#255000000
0$
0%
#255500000
r0.9152941176470532 8
r0.8988235294117592 @
r0.8847058823529359 H
b11111000 /
1$
1%
#256000000
0$
0%
#256500000
r0.8823529411764653 H
r0.8964705882352887 @
b11111001 /
1$
1%
#257000000
0$
0%
#257500000
r0.8799999999999948 H
b11111010 /
1$
1%
#258000000
0$
0%
#258500000
r0.8941176470588181 @
r0.9129411764705826 8
b11111011 /
1$
1%
#259000000
0$
0%
