Verilog/pixelTop_tb.vcd
$date
	Thu Nov 18 10:32:32 2021
$end
$version
	Icarus Verilog
$end
$timescale
	1ps
$end
$scope module pixelTop_tb $end
$var wire 16 ! pixData [15:0] $end
$var reg 1 " clk $end
$var reg 1 # reset $end
$scope module top $end
$var wire 1 $ anaReset $end
$var wire 1 " clk $end
$var wire 16 % pixData [15:0] $end
$var wire 1 # reset $end
$var wire 4 & read [3:0] $end
$var wire 1 ' expose $end
$var wire 1 ( erase $end
$var wire 1 ) convert $end
$var wire 1 * anaRamp $end
$var wire 1 + anaBias1 $end
$var reg 8 , data [7:0] $end
$var reg 16 - pixelDataOut [15:0] $end
$scope module fsm1 $end
$var wire 1 " clk $end
$var wire 1 # reset $end
$var reg 1 ) convert $end
$var reg 1 ( erase $end
$var reg 1 ' expose $end
$var reg 3 . next_state [2:0] $end
$var reg 4 / read [3:0] $end
$var reg 3 0 state [2:0] $end
$var integer 32 1 counter [31:0] $end
$upscope $end
$scope module ps1 $end
$var wire 16 2 DATA [15:0] $end
$var wire 1 ( ERASE $end
$var wire 1 ' EXPOSE $end
$var wire 1 * RAMP $end
$var wire 4 3 READ [3:0] $end
$var wire 1 $ RESET $end
$var wire 1 + VBN1 $end
$scope begin genblk1[0] $end
$scope begin genblk2[0] $end
$scope module ps1 $end
$var wire 8 4 DATA [7:0] $end
$var wire 1 ( ERASE $end
$var wire 1 ' EXPOSE $end
$var wire 1 * RAMP $end
$var wire 1 5 READ $end
$var wire 1 $ RESET $end
$var wire 1 + VBN1 $end
$var reg 1 6 cmp $end
$var reg 8 7 p_data [7:0] $end
$var real 1 8 adc $end
$var real 1 9 lsb $end
$var real 1 : tmp $end
$var real 1 ; v_erase $end
$upscope $end
$upscope $end
$scope begin genblk2[1] $end
$scope module ps1 $end
$var wire 8 < DATA [7:0] $end
$var wire 1 ( ERASE $end
$var wire 1 ' EXPOSE $end
$var wire 1 * RAMP $end
$var wire 1 = READ $end
$var wire 1 $ RESET $end
$var wire 1 + VBN1 $end
$var reg 1 > cmp $end
$var reg 8 ? p_data [7:0] $end
$var real 1 @ adc $end
$var real 1 A lsb $end
$var real 1 B tmp $end
$var real 1 C v_erase $end
$upscope $end
$upscope $end
$upscope $end
$scope begin genblk1[1] $end
$scope begin genblk2[0] $end
$scope module ps1 $end
$var wire 8 D DATA [7:0] $end
$var wire 1 ( ERASE $end
$var wire 1 ' EXPOSE $end
$var wire 1 * RAMP $end
$var wire 1 E READ $end
$var wire 1 $ RESET $end
$var wire 1 + VBN1 $end
$var reg 1 F cmp $end
$var reg 8 G p_data [7:0] $end
$var real 1 H adc $end
$var real 1 I lsb $end
$var real 1 J tmp $end
$var real 1 K v_erase $end
$upscope $end
$upscope $end
$scope begin genblk2[1] $end
$scope module ps1 $end
$var wire 8 L DATA [7:0] $end
$var wire 1 ( ERASE $end
$var wire 1 ' EXPOSE $end
$var wire 1 * RAMP $end
$var wire 1 M READ $end
$var wire 1 $ RESET $end
$var wire 1 + VBN1 $end
$var reg 1 N cmp $end
$var reg 8 O p_data [7:0] $end
$var real 1 P adc $end
$var real 1 Q lsb $end
$var real 1 R tmp $end
$var real 1 S v_erase $end
$upscope $end
$upscope $end
$upscope $end
$upscope $end
$upscope $end
$upscope $end
$enddefinitions $end
#500000
$dumpvars
r1.2 S
r0 R
r0.004705882352941176 Q
r0 P
bx O
xN
xM
bx L
r1.2 K
r0 J
r0.004705882352941176 I
r0 H
bx G
xF
xE
bx D
r1.2 C
r0 B
r0.004705882352941176 A
r0 @
bx ?
x>
x=
bx <
r1.2 ;
r0 :
r0.004705882352941176 9
r0 8
bx 7
x6
x5
bx 4
bx 3
bx 2
b0 1
b0 0
bx /
b0 .
b0 -
b0 ,
x+
0*
0)
x(
x'
bx &
bx %
1$
0#
1"
b0 !
$end
#1000000
b0 4
b0 <
b0 D
b0 L
b0 %
b0 2
05
0=
0E
0M
0N
b0 O
r1.2 R
0F
b0 G
r1.2 J
0>
b0 ?
r1.2 B
06
b0 7
r1.2 :
0'
b0 &
b0 /
b0 3
1(
0+
0"
#1500000
b1 1
1"
#2000000
0"
#2500000
b10 1
1"
#3000000
0"
#3500000
b11 1
1"
#4000000
0"
#4500000
b100 1
1"
#5000000
0"
#5500000
b101 1
1"
#6000000
0"
#6500000
b101 0
b1 .
b110 1
1"
#7000000
0(
0"
#7500000
b1 0
b0 1
1"
#8000000
1'
0"
#8500000
r1.197647058823529 R
r1.197647058823529 J
r1.197647058823529 B
1+
b1 1
1"
#9000000
0+
0"
#9500000
r1.195294117647059 B
r1.195294117647059 J
r1.195294117647059 R
1+
b10 1
1"
#10000000
0+
0"
#10500000
r1.192941176470588 R
r1.192941176470588 B
r1.197647058823529 :
1+
b11 1
1"
#11000000
0+
0"
#11500000
r1.190588235294117 B
r1.190588235294117 R
1+
b100 1
1"
#12000000
0+
0"
#12500000
r1.188235294117647 R
r1.192941176470588 J
r1.195294117647059 :
1+
b101 1
1"
#13000000
0+
0"
#13500000
r1.190588235294117 J
1+
b110 1
1"
#14000000
0+
0"
#14500000
r1.185882352941176 R
r1.188235294117647 B
1+
b111 1
1"
#15000000
0+
0"
#15500000
r1.185882352941176 B
r1.188235294117647 J
r1.183529411764705 R
1+
b1000 1
1"
#16000000
0+
0"
#16500000
r1.181176470588235 R
1+
b1001 1
1"
#17000000
0+
0"
#17500000
r1.192941176470588 :
r1.183529411764705 B
r1.185882352941176 J
1+
b1010 1
1"
#18000000
0+
0"
#18500000
r1.181176470588235 B
r1.190588235294117 :
1+
b1011 1
1"
#19000000
0+
0"
#19500000
r1.178823529411764 B
r1.183529411764705 J
r1.178823529411764 R
1+
b1100 1
1"
#20000000
0+
0"
#20500000
1+
b1101 1
1"
#21000000
0+
0"
#21500000
r1.188235294117647 :
r1.176470588235293 R
1+
b1110 1
1"
#22000000
0+
0"
#22500000
r1.185882352941176 :
1+
b1111 1
1"
#23000000
0+
0"
#23500000
r1.183529411764705 :
r1.176470588235293 B
1+
b10000 1
1"
#24000000
0+
0"
#24500000
r1.181176470588235 J
r1.174117647058823 B
r1.181176470588235 :
1+
b10001 1
1"
#25000000
0+
0"
#25500000
r1.178823529411764 :
r1.171764705882352 B
r1.178823529411764 J
1+
b10010 1
1"
#26000000
0+
0"
#26500000
r1.174117647058823 R
r1.176470588235293 J
1+
b10011 1
1"
#27000000
0+
0"
#27500000
r1.169411764705881 B
r1.174117647058823 J
1+
b10100 1
1"
#28000000
0+
0"
#28500000
r1.171764705882352 J
r1.167058823529411 B
r1.176470588235293 :
1+
b10101 1
1"
#29000000
0+
0"
#29500000
r1.169411764705881 J
r1.171764705882352 R
1+
b10110 1
1"
#30000000
0+
0"
#30500000
r1.169411764705881 R
r1.167058823529411 J
1+
b10111 1
1"
#31000000
0+
0"
#31500000
r1.174117647058823 :
r1.16470588235294 B
1+
b11000 1
1"
#32000000
0+
0"
#32500000
r1.16470588235294 J
r1.162352941176469 B
r1.171764705882352 :
1+
b11001 1
1"
#33000000
0+
0"
#33500000
r1.159999999999999 B
r1.162352941176469 J
r1.167058823529411 R
1+
b11010 1
1"
#34000000
0+
0"
#34500000
1+
b11011 1
1"
#35000000
0+
0"
#35500000
r1.169411764705881 :
r1.157647058823528 B
1+
b11100 1
1"
#36000000
0+
0"
#36500000
r1.159999999999999 J
r1.155294117647057 B
r1.167058823529411 :
1+
b11101 1
1"
#37000000
0+
0"
#37500000
r1.157647058823528 J
r1.16470588235294 R
1+
b11110 1
1"
#38000000
0+
0"
#38500000
r1.162352941176469 R
r1.152941176470587 B
r1.16470588235294 :
1+
b11111 1
1"
#39000000
0+
0"
#39500000
r1.150588235294116 B
r1.155294117647057 J
r1.159999999999999 R
1+
b100000 1
1"
#40000000
0+
0"
#40500000
r1.152941176470587 J
1+
b100001 1
1"
#41000000
0+
0"
#41500000
r1.162352941176469 :
r1.148235294117645 B
1+
b100010 1
1"
#42000000
0+
0"
#42500000
r1.150588235294116 J
1+
b100011 1
1"
#43000000
0+
0"
#43500000
r1.145882352941175 B
1+
b100100 1
1"
#44000000
0+
0"
#44500000
r1.157647058823528 R
r1.143529411764704 B
1+
b100101 1
1"
#45000000
0+
0"
#45500000
r1.159999999999999 :
r1.141176470588233 B
r1.148235294117645 J
r1.155294117647057 R
1+
b100110 1
1"
#46000000
0+
0"
#46500000
r1.152941176470587 R
1+
b100111 1
1"
#47000000
0+
0"
#47500000
r1.157647058823528 :
r1.138823529411763 B
1+
b101000 1
1"
#48000000
0+
0"
#48500000
r1.150588235294116 R
1+
b101001 1
1"
#49000000
0+
0"
#49500000
r1.148235294117645 R
1+
b101010 1
1"
#50000000
0+
0"
#50500000
r1.136470588235292 B
r1.155294117647057 :
1+
b101011 1
1"
#51000000
0+
0"
#51500000
r1.145882352941175 J
1+
b101100 1
1"
#52000000
0+
0"
#52500000
r1.152941176470587 :
1+
b101101 1
1"
#53000000
0+
0"
#53500000
r1.150588235294116 :
r1.134117647058821 B
r1.145882352941175 R
1+
b101110 1
1"
#54000000
0+
0"
#54500000
1+
b101111 1
1"
#55000000
0+
0"
#55500000
r1.143529411764704 R
1+
b110000 1
1"
#56000000
0+
0"
#56500000
r1.141176470588233 R
r1.143529411764704 J
r1.131764705882351 B
1+
b110001 1
1"
#57000000
0+
0"
#57500000
r1.148235294117645 :
r1.12941176470588 B
r1.141176470588233 J
1+
b110010 1
1"
#58000000
0+
0"
#58500000
r1.138823529411763 R
r1.138823529411763 J
1+
b110011 1
1"
#59000000
0+
0"
#59500000
r1.127058823529409 B
r1.136470588235292 J
r1.136470588235292 R
1+
b110100 1
1"
#60000000
0+
0"
#60500000
r1.124705882352939 B
r1.145882352941175 :
1+
b110101 1
1"
#61000000
0+
0"
#61500000
r1.143529411764704 :
r1.122352941176468 B
1+
b110110 1
1"
#62000000
0+
0"
#62500000
r1.134117647058821 J
1+
b110111 1
1"
#63000000
0+
0"
#63500000
r1.131764705882351 J
1+
b111000 1
1"
#64000000
0+
0"
#64500000
r1.134117647058821 R
r1.141176470588233 :
1+
b111001 1
1"
#65000000
0+
0"
#65500000
r1.12941176470588 J
r1.131764705882351 R
1+
b111010 1
1"
#66000000
0+
0"
#66500000
r1.119999999999997 B
1+
b111011 1
1"
#67000000
0+
0"
#67500000
r1.12941176470588 R
1+
b111100 1
1"
#68000000
0+
0"
#68500000
r1.117647058823527 B
1+
b111101 1
1"
#69000000
0+
0"
#69500000
r1.115294117647056 B
r1.127058823529409 J
1+
b111110 1
1"
#70000000
0+
0"
#70500000
r1.127058823529409 R
r1.124705882352939 J
r1.112941176470585 B
r1.138823529411763 :
1+
b111111 1
1"
#71000000
0+
0"
#71500000
r1.136470588235292 :
r1.110588235294115 B
r1.122352941176468 J
1+
b1000000 1
1"
#72000000
0+
0"
#72500000
r1.119999999999997 J
1+
b1000001 1
1"
#73000000
0+
0"
#73500000
r1.108235294117644 B
r1.117647058823527 J
1+
b1000010 1
1"
#74000000
0+
0"
#74500000
r1.105882352941173 B
1+
b1000011 1
1"
#75000000
0+
0"
#75500000
r1.134117647058821 :
r1.103529411764703 B
r1.124705882352939 R
1+
b1000100 1
1"
#76000000
0+
0"
#76500000
r1.122352941176468 R
r1.101176470588232 B
1+
b1000101 1
1"
#77000000
0+
0"
#77500000
r1.098823529411761 B
1+
b1000110 1
1"
#78000000
0+
0"
#78500000
r1.119999999999997 R
r1.115294117647056 J
1+
b1000111 1
1"
#79000000
0+
0"
#79500000
r1.096470588235291 B
r1.112941176470585 J
r1.117647058823527 R
1+
b1001000 1
1"
#80000000
0+
0"
#80500000
r1.110588235294115 J
r1.09411764705882 B
r1.131764705882351 :
1+
b1001001 1
1"
#81000000
0+
0"
#81500000
1+
b1001010 1
1"
#82000000
0+
0"
#82500000
r1.115294117647056 R
r1.108235294117644 J
r1.091764705882349 B
1+
b1001011 1
1"
#83000000
0+
0"
#83500000
r1.12941176470588 :
r1.089411764705879 B
r1.105882352941173 J
r1.112941176470585 R
1+
b1001100 1
1"
#84000000
0+
0"
#84500000
r1.110588235294115 R
r1.103529411764703 J
r1.087058823529408 B
1+
b1001101 1
1"
#85000000
0+
0"
#85500000
r1.127058823529409 :
r1.084705882352937 B
r1.101176470588232 J
r1.108235294117644 R
1+
b1001110 1
1"
#86000000
0+
0"
#86500000
r1.105882352941173 R
r1.124705882352939 :
1+
b1001111 1
1"
#87000000
0+
0"
#87500000
r1.103529411764703 R
1+
b1010000 1
1"
#88000000
0+
0"
#88500000
r1.082352941176467 B
1+
b1010001 1
1"
#89000000
0+
0"
#89500000
1+
b1010010 1
1"
#90000000
0+
0"
#90500000
r1.101176470588232 R
r1.122352941176468 :
1+
b1010011 1
1"
#91000000
0+
0"
#91500000
1+
b1010100 1
1"
#92000000
0+
0"
#92500000
r1.098823529411761 R
r1.098823529411761 J
r1.079999999999996 B
r1.119999999999997 :
1+
b1010101 1
1"
#93000000
0+
0"
#93500000
r1.117647058823527 :
r1.077647058823525 B
r1.096470588235291 R
1+
b1010110 1
1"
#94000000
0+
0"
#94500000
r1.096470588235291 J
r1.115294117647056 :
1+
b1010111 1
1"
#95000000
0+
0"
#95500000
r1.075294117647055 B
r1.09411764705882 J
1+
b1011000 1
1"
#96000000
0+
0"
#96500000
r1.09411764705882 R
r1.112941176470585 :
1+
b1011001 1
1"
#97000000
0+
0"
#97500000
1+
b1011010 1
1"
#98000000
0+
0"
#98500000
r1.091764705882349 R
r1.091764705882349 J
r1.072941176470584 B
r1.110588235294115 :
1+
b1011011 1
1"
#99000000
0+
0"
#99500000
r1.108235294117644 :
r1.070588235294113 B
r1.089411764705879 J
1+
b1011100 1
1"
#100000000
0+
0"
#100500000
r1.089411764705879 R
r1.087058823529408 J
r1.068235294117643 B
r1.105882352941173 :
1+
b1011101 1
1"
#101000000
0+
0"
#101500000
r1.103529411764703 :
r1.084705882352937 J
1+
b1011110 1
1"
#102000000
0+
0"
#102500000
r1.082352941176467 J
1+
b1011111 1
1"
#103000000
0+
0"
#103500000
1+
b1100000 1
1"
#104000000
0+
0"
#104500000
r1.101176470588232 :
1+
b1100001 1
1"
#105000000
0+
0"
#105500000
r1.098823529411761 :
1+
b1100010 1
1"
#106000000
0+
0"
#106500000
r1.065882352941172 B
1+
b1100011 1
1"
#107000000
0+
0"
#107500000
r1.096470588235291 :
r1.063529411764701 B
r1.087058823529408 R
1+
b1100100 1
1"
#108000000
0+
0"
#108500000
r1.084705882352937 R
r1.061176470588231 B
1+
b1100101 1
1"
#109000000
0+
0"
#109500000
1+
b1100110 1
1"
#110000000
0+
0"
#110500000
r1.079999999999996 J
r1.09411764705882 :
1+
b1100111 1
1"
#111000000
0+
0"
#111500000
r1.091764705882349 :
r1.077647058823525 J
r1.082352941176467 R
1+
b1101000 1
1"
#112000000
0+
0"
#112500000
r1.079999999999996 R
r1.075294117647055 J
r1.05882352941176 B
1+
b1101001 1
1"
#113000000
0+
0"
#113500000
r1.056470588235289 B
r1.072941176470584 J
1+
b1101010 1
1"
#114000000
0+
0"
#114500000
r1.070588235294113 J
r1.054117647058818 B
1+
b1101011 1
1"
#115000000
0+
0"
#115500000
r1.051764705882348 B
r1.068235294117643 J
1+
b1101100 1
1"
#116000000
0+
0"
#116500000
r1.049411764705877 B
1+
b1101101 1
1"
#117000000
0+
0"
#117500000
r1.065882352941172 J
r1.077647058823525 R
1+
b1101110 1
1"
#118000000
0+
0"
#118500000
r1.075294117647055 R
r1.089411764705879 :
1+
b1101111 1
1"
#119000000
0+
0"
#119500000
r1.047058823529406 B
r1.072941176470584 R
1+
b1110000 1
1"
#120000000
0+
0"
#120500000
r1.070588235294113 R
r1.044705882352936 B
r1.087058823529408 :
1+
b1110001 1
1"
#121000000
0+
0"
#121500000
r1.084705882352937 :
r1.063529411764701 J
r1.068235294117643 R
1+
b1110010 1
1"
#122000000
0+
0"
#122500000
r1.042352941176465 B
r1.082352941176467 :
1+
b1110011 1
1"
#123000000
0+
0"
#123500000
r1.079999999999996 :
r1.065882352941172 R
1+
b1110100 1
1"
#124000000
0+
0"
#124500000
r1.063529411764701 R
r1.061176470588231 J
1+
b1110101 1
1"
#125000000
0+
0"
#125500000
r1.077647058823525 :
r1.05882352941176 J
1+
b1110110 1
1"
#126000000
0+
0"
#126500000
r1.056470588235289 J
r1.039999999999994 B
r1.075294117647055 :
1+
b1110111 1
1"
#127000000
0+
0"
#127500000
r1.072941176470584 :
r1.054117647058818 J
1+
b1111000 1
1"
#128000000
0+
0"
#128500000
r1.051764705882348 J
r1.037647058823524 B
1+
b1111001 1
1"
#129000000
0+
0"
#129500000
r1.070588235294113 :
r1.035294117647053 B
r1.049411764705877 J
1+
b1111010 1
1"
#130000000
0+
0"
#130500000
r1.047058823529406 J
1+
b1111011 1
1"
#131000000
0+
0"
#131500000
r1.068235294117643 :
r1.032941176470582 B
r1.044705882352936 J
1+
b1111100 1
1"
#132000000
0+
0"
#132500000
r1.042352941176465 J
r1.030588235294112 B
1+
b1111101 1
1"
#133000000
0+
0"
#133500000
r1.065882352941172 :
r1.028235294117641 B
1+
b1111110 1
1"
#134000000
0+
0"
#134500000
r1.063529411764701 :
1+
b1111111 1
1"
#135000000
0+
0"
#135500000
r1.061176470588231 :
r1.02588235294117 B
r1.039999999999994 J
r1.061176470588231 R
1+
b10000000 1
1"
#136000000
0+
0"
#136500000
r1.05882352941176 R
r1.037647058823524 J
r1.0235294117647 B
1+
b10000001 1
1"
#137000000
0+
0"
#137500000
r1.05882352941176 :
r1.021176470588229 B
r1.035294117647053 J
r1.056470588235289 R
1+
b10000010 1
1"
#138000000
0+
0"
#138500000
r1.018823529411758 B
1+
b10000011 1
1"
#139000000
0+
0"
#139500000
r1.056470588235289 :
r1.016470588235288 B
r1.032941176470582 J
1+
b10000100 1
1"
#140000000
0+
0"
#140500000
r1.054117647058818 R
r1.030588235294112 J
r1.014117647058817 B
r1.054117647058818 :
1+
b10000101 1
1"
#141000000
0+
0"
#141500000
r1.028235294117641 J
r1.051764705882348 R
1+
b10000110 1
1"
#142000000
0+
0"
#142500000
r1.011764705882346 B
1+
b10000111 1
1"
#143000000
0+
0"
#143500000
r1.009411764705876 B
r1.02588235294117 J
1+
b10001000 1
1"
#144000000
0+
0"
#144500000
r1.049411764705877 R
r1.0235294117647 J
1+
b10001001 1
1"
#145000000
0+
0"
#145500000
r1.051764705882348 :
r1.021176470588229 J
1+
b10001010 1
1"
#146000000
0+
0"
#146500000
r1.047058823529406 R
1+
b10001011 1
1"
#147000000
0+
0"
#147500000
r1.049411764705877 :
r1.018823529411758 J
r1.044705882352936 R
1+
b10001100 1
1"
#148000000
0+
0"
#148500000
r1.042352941176465 R
r1.007058823529405 B
1+
b10001101 1
1"
#149000000
0+
0"
#149500000
r1.039999999999994 R
1+
b10001110 1
1"
#150000000
0+
0"
#150500000
r1.016470588235288 J
r1.004705882352934 B
1+
b10001111 1
1"
#151000000
0+
0"
#151500000
r1.047058823529406 :
r1.014117647058817 J
1+
b10010000 1
1"
#152000000
0+
0"
#152500000
r1.011764705882346 J
r1.002352941176464 B
1+
b10010001 1
1"
#153000000
0+
0"
#153500000
r1.009411764705876 J
r1.037647058823524 R
1+
b10010010 1
1"
#154000000
0+
0"
#154500000
r1.035294117647053 R
r1.007058823529405 J
1+
b10010011 1
1"
#155000000
0+
0"
#155500000
r0.9999999999999932 B
r1.004705882352934 J
r1.032941176470582 R
1+
b10010100 1
1"
#156000000
0+
0"
#156500000
1+
b10010101 1
1"
#157000000
0+
0"
#157500000
r1.044705882352936 :
r0.9976470588235227 B
1+
b10010110 1
1"
#158000000
0+
0"
#158500000
r1.030588235294112 R
r1.002352941176464 J
r0.9952941176470521 B
r1.042352941176465 :
1+
b10010111 1
1"
#159000000
0+
0"
#159500000
r1.028235294117641 R
1+
b10011000 1
1"
#160000000
0+
0"
#160500000
r1.02588235294117 R
1+
b10011001 1
1"
#161000000
0+
0"
#161500000
r0.9929411764705816 B
r1.0235294117647 R
1+
b10011010 1
1"
#162000000
0+
0"
#162500000
r0.9999999999999932 J
r0.990588235294111 B
r1.039999999999994 :
1+
b10011011 1
1"
#163000000
0+
0"
#163500000
r1.037647058823524 :
r0.9882352941176404 B
1+
b10011100 1
1"
#164000000
0+
0"
#164500000
r0.9858823529411699 B
1+
b10011101 1
1"
#165000000
0+
0"
#165500000
1+
b10011110 1
1"
#166000000
0+
0"
#166500000
r1.021176470588229 R
r1.035294117647053 :
1+
b10011111 1
1"
#167000000
0+
0"
#167500000
r1.032941176470582 :
r0.9835294117646993 B
1+
b10100000 1
1"
#168000000
0+
0"
#168500000
r1.018823529411758 R
r1.030588235294112 :
1+
b10100001 1
1"
#169000000
0+
0"
#169500000
r0.9811764705882288 B
r0.9976470588235227 J
r1.016470588235288 R
1+
b10100010 1
1"
#170000000
0+
0"
#170500000
r1.014117647058817 R
r0.9952941176470521 J
r0.9788235294117582 B
r1.028235294117641 :
1+
b10100011 1
1"
#171000000
0+
0"
#171500000
r0.9929411764705816 J
1+
b10100100 1
1"
#172000000
0+
0"
#172500000
r1.011764705882346 R
r1.02588235294117 :
1+
b10100101 1
1"
#173000000
0+
0"
#173500000
1+
b10100110 1
1"
#174000000
0+
0"
#174500000
r1.009411764705876 R
r0.990588235294111 J
1+
b10100111 1
1"
#175000000
0+
0"
#175500000
r1.0235294117647 :
r0.9764705882352877 B
1+
b10101000 1
1"
#176000000
0+
0"
#176500000
r1.007058823529405 R
r0.9882352941176404 J
r0.9741176470588171 B
r1.021176470588229 :
1+
b10101001 1
1"
#177000000
0+
0"
#177500000
r0.9717647058823465 B
r1.004705882352934 R
1+
b10101010 1
1"
#178000000
0+
0"
#178500000
r1.002352941176464 R
r0.9858823529411699 J
1+
b10101011 1
1"
#179000000
0+
0"
#179500000
r1.018823529411758 :
r0.969411764705876 B
r0.9835294117646993 J
1+
b10101100 1
1"
#180000000
0+
0"
#180500000
1+
b10101101 1
1"
#181000000
0+
0"
#181500000
r0.9670588235294054 B
r0.9811764705882288 J
r0.9999999999999932 R
1+
b10101110 1
1"
#182000000
0+
0"
#182500000
r1.016470588235288 :
1+
b10101111 1
1"
#183000000
0+
0"
#183500000
1+
b10110000 1
1"
#184000000
0+
0"
#184500000
r0.9976470588235227 R
r1.014117647058817 :
1+
b10110001 1
1"
#185000000
0+
0"
#185500000
r1.011764705882346 :
r0.9647058823529349 B
r0.9788235294117582 J
r0.9952941176470521 R
1+
b10110010 1
1"
#186000000
0+
0"
#186500000
1+
b10110011 1
1"
#187000000
0+
0"
#187500000
r0.9764705882352877 J
r0.9929411764705816 R
1+
b10110100 1
1"
#188000000
0+
0"
#188500000
r0.990588235294111 R
r0.9741176470588171 J
r0.9623529411764643 B
r1.009411764705876 :
1+
b10110101 1
1"
#189000000
0+
0"
#189500000
r0.9882352941176404 R
1+
b10110110 1
1"
#190000000
0+
0"
#190500000
r0.9717647058823465 J
r1.007058823529405 :
1+
b10110111 1
1"
#191000000
0+
0"
#191500000
1+
b10111000 1
1"
#192000000
0+
0"
#192500000
r0.9858823529411699 R
r0.969411764705876 J
r1.004705882352934 :
1+
b10111001 1
1"
#193000000
0+
0"
#193500000
r0.9599999999999937 B
r0.9670588235294054 J
1+
b10111010 1
1"
#194000000
0+
0"
#194500000
r0.9835294117646993 R
r0.9647058823529349 J
r1.002352941176464 :
1+
b10111011 1
1"
#195000000
0+
0"
#195500000
r0.9999999999999932 :
r0.9576470588235232 B
1+
b10111100 1
1"
#196000000
0+
0"
#196500000
1+
b10111101 1
1"
#197000000
0+
0"
#197500000
r0.9552941176470526 B
r0.9623529411764643 J
r0.9811764705882288 R
1+
b10111110 1
1"
#198000000
0+
0"
#198500000
r0.9788235294117582 R
r0.9599999999999937 J
r0.9529411764705821 B
1+
b10111111 1
1"
#199000000
0+
0"
#199500000
r0.9976470588235227 :
r0.9764705882352877 R
1+
b11000000 1
1"
#200000000
0+
0"
#200500000
r0.9741176470588171 R
r0.9952941176470521 :
1+
b11000001 1
1"
#201000000
0+
0"
#201500000
r0.9929411764705816 :
r0.9576470588235232 J
1+
b11000010 1
1"
#202000000
0+
0"
#202500000
r0.990588235294111 :
1+
b11000011 1
1"
#203000000
0+
0"
#203500000
r0.9505882352941115 B
1+
b11000100 1
1"
#204000000
0+
0"
#204500000
r0.9882352941176404 :
1+
b11000101 1
1"
#205000000
0+
0"
#205500000
r0.9858823529411699 :
r0.9717647058823465 R
1+
b11000110 1
1"
#206000000
0+
0"
#206500000
r0.969411764705876 R
r0.9552941176470526 J
r0.948235294117641 B
1+
b11000111 1
1"
#207000000
0+
0"
#207500000
r0.9835294117646993 :
r0.9529411764705821 J
r0.9670588235294054 R
1+
b11001000 1
1"
#208000000
0+
0"
#208500000
r0.9647058823529349 R
r0.9811764705882288 :
1+
b11001001 1
1"
#209000000
0+
0"
#209500000
r0.9788235294117582 :
r0.9458823529411704 B
r0.9505882352941115 J
1+
b11001010 1
1"
#210000000
0+
0"
#210500000
r0.9623529411764643 R
r0.9435294117646998 B
r0.9764705882352877 :
1+
b11001011 1
1"
#211000000
0+
0"
#211500000
r0.9741176470588171 :
r0.948235294117641 J
1+
b11001100 1
1"
#212000000
0+
0"
#212500000
r0.9717647058823465 :
1+
b11001101 1
1"
#213000000
0+
0"
#213500000
r0.9411764705882293 B
r0.9458823529411704 J
1+
b11001110 1
1"
#214000000
0+
0"
#214500000
r0.9599999999999937 R
r0.9435294117646998 J
r0.9388235294117587 B
1+
b11001111 1
1"
#215000000
0+
0"
#215500000
r0.9411764705882293 J
r0.9576470588235232 R
1+
b11010000 1
1"
#216000000
0+
0"
#216500000
r0.9388235294117587 J
1+
b11010001 1
1"
#217000000
0+
0"
#217500000
r0.969411764705876 :
r0.9364705882352882 J
1+
b11010010 1
1"
#218000000
0+
0"
#218500000
r0.9341176470588176 J
1+
b11010011 1
1"
#219000000
0+
0"
#219500000
r0.9670588235294054 :
1+
b11010100 1
1"
#220000000
0+
0"
#220500000
r0.9317647058823471 J
r0.9364705882352882 B
1+
b11010101 1
1"
#221000000
0+
0"
#221500000
r0.9647058823529349 :
r0.9294117647058765 J
1+
b11010110 1
1"
#222000000
0+
0"
#222500000
r0.9270588235294059 J
r0.9341176470588176 B
r0.9623529411764643 :
1+
b11010111 1
1"
#223000000
0+
0"
#223500000
r0.9599999999999937 :
r0.9552941176470526 R
1+
b11011000 1
1"
#224000000
0+
0"
#224500000
r0.9529411764705821 R
r0.9317647058823471 B
r0.9576470588235232 :
1+
b11011001 1
1"
#225000000
0+
0"
#225500000
r0.9552941176470526 :
r0.9294117647058765 B
r0.9247058823529354 J
r0.9505882352941115 R
1+
b11011010 1
1"
#226000000
0+
0"
#226500000
r0.9223529411764648 J
r0.9529411764705821 :
1+
b11011011 1
1"
#227000000
0+
0"
#227500000
r0.9270588235294059 B
1+
b11011100 1
1"
#228000000
0+
0"
#228500000
r0.9199999999999943 J
r0.9505882352941115 :
1+
b11011101 1
1"
#229000000
0+
0"
#229500000
r0.948235294117641 :
1+
b11011110 1
1"
#230000000
0+
0"
#230500000
r0.9176470588235237 J
1+
b11011111 1
1"
#231000000
0+
0"
#231500000
r0.9458823529411704 :
r0.948235294117641 R
1+
b11100000 1
1"
#232000000
0+
0"
#232500000
r0.9458823529411704 R
r0.9435294117646998 :
1+
b11100001 1
1"
#233000000
0+
0"
#233500000
r0.9411764705882293 :
r0.9247058823529354 B
r0.9435294117646998 R
1+
b11100010 1
1"
#234000000
0+
0"
#234500000
r0.9411764705882293 R
r0.9223529411764648 B
r0.9388235294117587 :
1+
b11100011 1
1"
#235000000
0+
0"
#235500000
r0.9364705882352882 :
r0.9199999999999943 B
1+
b11100100 1
1"
#236000000
0+
0"
#236500000
r0.9152941176470532 J
r0.9176470588235237 B
1+
b11100101 1
1"
#237000000
0+
0"
#237500000
r0.9152941176470532 B
r0.9129411764705826 J
r0.9388235294117587 R
1+
b11100110 1
1"
#238000000
0+
0"
#238500000
r0.910588235294112 J
r0.9341176470588176 :
1+
b11100111 1
1"
#239000000
0+
0"
#239500000
1+
b11101000 1
1"
#240000000
0+
0"
#240500000
1+
b11101001 1
1"
#241000000
0+
0"
#241500000
r0.9129411764705826 B
r0.9082352941176415 J
r0.9364705882352882 R
1+
b11101010 1
1"
#242000000
0+
0"
#242500000
r0.9341176470588176 R
r0.9058823529411709 J
1+
b11101011 1
1"
#243000000
0+
0"
#243500000
r0.9317647058823471 :
r0.910588235294112 B
r0.9035294117647004 J
1+
b11101100 1
1"
#244000000
0+
0"
#244500000
r0.9317647058823471 R
r0.9011764705882298 J
1+
b11101101 1
1"
#245000000
0+
0"
#245500000
1+
b11101110 1
1"
#246000000
0+
0"
#246500000
r0.9294117647058765 R
r0.8988235294117592 J
r0.9294117647058765 :
1+
b11101111 1
1"
#247000000
0+
0"
#247500000
r0.9270588235294059 :
r0.8964705882352887 J
1+
b11110000 1
1"
#248000000
0+
0"
#248500000
r0.9270588235294059 R
r0.8941176470588181 J
r0.9247058823529354 :
1+
b11110001 1
1"
#249000000
0+
0"
#249500000
r0.9223529411764648 :
r0.8917647058823476 J
r0.9247058823529354 R
1+
b11110010 1
1"
#250000000
0+
0"
#250500000
r0.9082352941176415 B
1+
b11110011 1
1"
#251000000
0+
0"
#251500000
r0.9058823529411709 B
1+
b11110100 1
1"
#252000000
0+
0"
#252500000
r0.9223529411764648 R
r0.9199999999999943 :
1+
b11110101 1
1"
#253000000
0+
0"
#253500000
r0.9035294117647004 B
r0.889411764705877 J
r0.9199999999999943 R
1+
b11110110 1
1"
#254000000
0+
0"
#254500000
r0.8870588235294065 J
r0.9011764705882298 B
r0.9176470588235237 :
1+
b11110111 1
1"
#255000000
0+
0"
